<?xml version="1.0" encoding="UTF-8" standalone="no"?>
<!-- Created with Inkscape (http://www.inkscape.org/) -->

<svg
   xmlns:dc="http://purl.org/dc/elements/1.1/"
   xmlns:cc="http://creativecommons.org/ns#"
   xmlns:rdf="http://www.w3.org/1999/02/22-rdf-syntax-ns#"
   xmlns:svg="http://www.w3.org/2000/svg"
   xmlns="http://www.w3.org/2000/svg"
   xmlns:sodipodi="http://sodipodi.sourceforge.net/DTD/sodipodi-0.dtd"
   xmlns:inkscape="http://www.inkscape.org/namespaces/inkscape"
   width="210mm"
   height="297mm"
   viewBox="0 0 210 297"
   version="1.1"
   id="svg775"
   inkscape:version="0.92.4 (f8dce91, 2019-08-02)"
   sodipodi:docname="bR.svg">
  <defs
     id="defs769" />
  <sodipodi:namedview
     id="base"
     pagecolor="#ffffff"
     bordercolor="#666666"
     borderopacity="1.0"
     inkscape:pageopacity="0.0"
     inkscape:pageshadow="2"
     inkscape:zoom="0.35"
     inkscape:cx="400"
     inkscape:cy="560"
     inkscape:document-units="mm"
     inkscape:current-layer="layer1"
     showgrid="false"
     inkscape:window-width="1533"
     inkscape:window-height="845"
     inkscape:window-x="67"
     inkscape:window-y="27"
     inkscape:window-maximized="1" />
  <metadata
     id="metadata772">
    <rdf:RDF>
      <cc:Work
         rdf:about="">
        <dc:format>image/svg+xml</dc:format>
        <dc:type
           rdf:resource="http://purl.org/dc/dcmitype/StillImage" />
        <dc:title></dc:title>
      </cc:Work>
    </rdf:RDF>
  </metadata>
  <g
     inkscape:label="Calque 1"
     inkscape:groupmode="layer"
     id="layer1">
    <path
       inkscape:connector-curvature="0"
       style="fill:#cccccc;stroke-width:0.43017414"
       d="m 40.5384,78.927866 c -0.47319,0.60225 -0.64525,1.419584 -0.47319,2.193897 l 12.73316,50.717527 c 0.30113,1.11845 1.29052,1.93578 2.45199,1.93578 h 4.17269 l 9.72195,20.64837 c 0.43017,0.90335 1.33352,1.46259 2.32293,1.46259 h 5.50622 c -0.64525,26.36967 -11.48564,37.42515 -21.07852,47.23311 -6.28055,6.4096 -12.17393,12.43205 -13.16334,21.59474 -1.67768,15.48628 6.06546,21.76682 9.63591,23.78863 v 15.95946 c 0,1.41959 1.16147,2.53803 2.53803,2.53803 h 100.18756 c 1.41956,0 2.53802,-1.16147 2.53802,-2.53803 v -15.95946 c 3.52742,-2.02181 11.31359,-8.34537 9.6359,-23.78863 -0.98941,-9.16269 -6.92581,-15.22816 -13.16334,-21.59474 -9.59286,-9.80796 -20.43326,-20.86344 -21.07852,-47.23311 h 5.50623 c 0.9894,0 1.89276,-0.55924 2.32294,-1.46259 l 9.72193,-20.64837 h 4.17269 c 1.16147,0 2.19388,-0.7743 2.45199,-1.93578 l 12.73316,-50.717527 c 0.17206,-0.774313 0,-1.548628 -0.47319,-2.193897 -0.47319,-0.602249 -1.20448,-0.989398 -2.02182,-0.989398 h -30.02616 c -1.20448,0 -2.27991,0.860354 -2.495,2.064836 l -5.76433,29.165806 h -4.68892 l 3.35536,-28.348472 c 0.086,-0.731293 -0.12909,-1.462603 -0.64525,-1.978812 -0.47318,-0.559213 -1.16147,-0.860338 -1.89277,-0.860338 H 84.71729 c -0.73129,0 -1.41957,0.301125 -1.89276,0.860338 -0.4732,0.559229 -0.73131,1.290522 -0.64526,1.978812 l 3.35536,28.348472 H 80.84572 L 75.0814,80.003304 C 74.82329,78.798822 73.79088,77.938468 72.58638,77.938468 H 42.56023 c -0.77431,0.04309 -1.54863,0.387149 -2.02183,0.989398 z M 57.44425,249.49192 h 95.0685 v 12.43203 h -95.0685 z m 24.60596,-93.60589 h 45.81355 c 0.68827,28.47753 12.77618,40.82352 22.54113,50.80356 6.10846,6.23752 10.92642,11.18453 11.74375,18.58352 1.5056,13.8516 -5.89338,18.28241 -7.61408,19.14276 H 55.42243 c -1.76371,-0.86035 -9.11969,-5.29116 -7.61409,-19.14276 0.81734,-7.44201 5.63529,-12.346 11.74377,-18.58352 9.72193,-9.98004 21.80983,-22.32603 22.4981,-50.80356 z M 65.05833,133.77507 h 79.79731 l -8.00124,16.99188 H 130.35876 79.51218 73.01656 Z M 45.82955,83.057538 h 24.69199 l 5.76434,29.165802 c 0.2581,1.20449 1.29053,2.06484 2.495,2.06484 h 9.63591 c 0.73129,0 1.41957,-0.30113 1.89277,-0.86035 0.47319,-0.55921 0.7313,-1.29052 0.64525,-1.9788 L 87.59945,83.100558 h 34.8011 l -3.35536,28.348472 c -0.086,0.73129 0.12909,1.46259 0.64526,1.9788 0.47319,0.55922 1.16147,0.86035 1.89277,0.86035 h 9.6359 c 1.20448,0 2.27992,-0.86035 2.495,-2.06484 l 5.76434,-29.165802 h 24.69199 L 152.72782,128.69901 H 148.94228 61.10074 57.3152 Z"
       id="path191" />
    <path
       style="fill:#333333;stroke-width:2.85714293"
       d="m 201.74034,917.47374 c -12.77027,-8.94465 -19.03801,-26.22231 -19.10625,-52.66834 -0.0831,-32.22141 5.48114,-43.12395 41.62998,-81.56904 36.75303,-39.08766 48.21015,-54.55173 62.51234,-84.37506 12.66371,-26.40672 22.83673,-67.89048 22.90034,-93.38351 l 0.0375,-15.04189 86.42857,0.75618 86.42857,0.75618 1.9048,22.95461 c 5.3206,64.11798 25.76786,105.40238 81.86703,165.29508 39.70911,42.39429 44.81128,52.03752 44.76531,84.60745 -0.0286,19.57166 -1.26803,26.60609 -6.39031,36.23977 -11.91683,22.41246 3.09234,20.90309 -207.86112,20.90309 -166.67384,0 -189.47506,-0.52289 -195.1168,-4.47452 z"
       id="path783"
       inkscape:connector-curvature="0"
       transform="scale(0.26458333)" />
    <path
       style="fill:#333333;stroke-width:2.85714293"
       d="m 197.03994,405.51969 c -10.84158,-43.60715 -20.28929,-81.53572 -20.9949,-84.28572 -1.18205,-4.60682 2.30703,-5 44.36983,-5 h 45.65277 l 10.77483,55 c 7.02698,35.86912 12.3233,56.24227 15.22656,58.57143 6.6852,5.36326 44.54453,4.74319 49.1491,-0.80498 2.94819,-3.55235 2.7062,-12.56365 -1.28515,-47.85715 -2.70449,-23.9144 -5.63154,-48.30216 -6.50457,-54.19501 l -1.58731,-10.71429 h 65.01604 65.01606 l -1.58731,10.71429 c -0.87303,5.89285 -3.80009,30.28061 -6.50458,54.19501 -3.99136,35.2935 -4.23334,44.3048 -1.28515,47.85715 4.60458,5.54817 42.4639,6.16824 49.1491,0.80498 2.90325,-2.32916 8.19957,-22.70231 15.22654,-58.57143 l 10.77486,-55 h 45.65277 c 42.06277,0 45.55186,0.39318 44.36983,5 -0.70563,2.75 -10.15332,40.67857 -20.99492,84.28572 L 576.96237,484.8054 H 396.85714 216.75191 Z"
       id="path785"
       inkscape:connector-curvature="0"
       transform="scale(0.26458333)" />
    <path
       style="fill:#333333;stroke-width:2.85714293"
       d="m 262.95985,540.26503 c -7.28506,-15.06863 -13.24556,-28.56863 -13.24556,-30 0,-1.53153 60.55099,-2.60249 147.14285,-2.60249 80.92857,0 147.14286,0.78731 147.14286,1.74959 0,0.96227 -5.97969,14.46227 -13.2882,30 l -13.28822,28.25041 H 396.8145 276.20542 Z"
       id="path787"
       inkscape:connector-curvature="0"
       transform="scale(0.26458333)" />
    <path
       style="fill:#333333;stroke-width:2.85714293"
       d="M 218.28571,966.23397 V 944.8054 h 178.57143 178.57143 v 21.42857 21.42857 H 396.85714 218.28571 Z"
       id="path789"
       inkscape:connector-curvature="0"
       transform="scale(0.26458333)" />
  </g>
</svg>
