<?xml version="1.0" encoding="UTF-8" standalone="no"?>
<!-- Created with Inkscape (http://www.inkscape.org/) -->

<svg
   xmlns:dc="http://purl.org/dc/elements/1.1/"
   xmlns:cc="http://creativecommons.org/ns#"
   xmlns:rdf="http://www.w3.org/1999/02/22-rdf-syntax-ns#"
   xmlns:svg="http://www.w3.org/2000/svg"
   xmlns="http://www.w3.org/2000/svg"
   xmlns:sodipodi="http://sodipodi.sourceforge.net/DTD/sodipodi-0.dtd"
   xmlns:inkscape="http://www.inkscape.org/namespaces/inkscape"
   width="210mm"
   height="297mm"
   viewBox="0 0 210 297"
   version="1.1"
   id="svg499"
   inkscape:version="0.92.4 (f8dce91, 2019-08-02)"
   sodipodi:docname="wK.svg">
  <defs
     id="defs493" />
  <sodipodi:namedview
     id="base"
     pagecolor="#ffffff"
     bordercolor="#666666"
     borderopacity="1.0"
     inkscape:pageopacity="0.0"
     inkscape:pageshadow="2"
     inkscape:zoom="0.35"
     inkscape:cx="400"
     inkscape:cy="560"
     inkscape:document-units="mm"
     inkscape:current-layer="layer1"
     showgrid="false"
     inkscape:window-width="1533"
     inkscape:window-height="845"
     inkscape:window-x="67"
     inkscape:window-y="27"
     inkscape:window-maximized="1" />
  <metadata
     id="metadata496">
    <rdf:RDF>
      <cc:Work
         rdf:about="">
        <dc:format>image/svg+xml</dc:format>
        <dc:type
           rdf:resource="http://purl.org/dc/dcmitype/StillImage" />
        <dc:title></dc:title>
      </cc:Work>
    </rdf:RDF>
  </metadata>
  <g
     inkscape:label="Calque 1"
     inkscape:groupmode="layer"
     id="layer1">
    <path
       inkscape:connector-curvature="0"
       d="m 139.95182,214.93675 c -7.80484,-12.94614 -17.46798,-28.98941 -18.02547,-49.02803 h 0.96012 c 0.24778,0 0.52652,-0.0619 0.74332,-0.15487 0.34069,-0.15485 7.68096,-3.49978 9.818,-10.65422 h 7.9597 c 0.49555,0 0.96011,-0.18583 1.30082,-0.55748 0.34068,-0.34069 0.52651,-0.83623 0.52651,-1.30081 -0.093,-5.85363 -2.97327,-12.1099 -8.57914,-18.61393 -3.59271,-4.61476 -7.55706,-10.00382 -8.30038,-11.52143 0.0619,-2.97327 5.54392,-23.848122 10.77812,-42.307192 0.15485,-0.55749 0.031,-1.14596 -0.30973,-1.61052 -0.34068,-0.46458 -0.89817,-0.74332 -1.45566,-0.74332 h -15.42385 l -3.43784,-8.26942 11.86212,4.95546 c 0.55748,0.24777 1.20789,0.18583 1.73439,-0.15487 0.49556,-0.34068 0.80527,-0.89817 0.80527,-1.5176 v -27.37889 c 0,-0.61943 -0.30971,-1.17692 -0.80527,-1.51761 -0.49554,-0.34068 -1.14593,-0.40263 -1.73439,-0.15486 l -11.86212,4.95546 3.90242,-9.38439 c 0.24777,-0.55749 0.18583,-1.2079 -0.15487,-1.73441 -0.34068,-0.49555 -0.89818,-0.80526 -1.51759,-0.80526 H 91.357397 c -0.61944,0 -1.17693,0.30971 -1.51761,0.80526 -0.34069,0.49554 -0.40263,1.14595 -0.15486,1.73441 l 3.7166,8.95079 -11.36658,-4.73866 c -0.55749,-0.24777 -1.20789,-0.18583 -1.73441,0.15486 -0.49554,0.34069 -0.80526,0.89818 -0.80526,1.51761 v 27.37889 c 0,0.61943 0.30972,1.17691 0.80526,1.51761 0.49554,0.34069 1.14595,0.40262 1.73441,0.15486 l 11.58338,-4.83158 -3.49979,8.36234 h -15.42385 c -0.58847,0 -1.11498,0.27874 -1.45566,0.74332 -0.34071,0.46456 -0.46458,1.05303 -0.30973,1.61052 5.2342,18.45907 10.74714,39.302942 10.77811,42.307192 -0.71234,1.51761 -4.67671,6.90667 -8.30038,11.52143 -5.60586,6.50403 -8.48621,12.7603 -8.57913,18.61393 0,0.49554 0.18583,0.96012 0.52651,1.30081 0.34069,0.34068 0.80527,0.55748 1.30081,0.55748 h 7.9597 c 2.10607,7.15444 9.4773,10.49937 9.818,10.65422 0.24777,0.0929 0.49555,0.15487 0.74332,0.15487 h 0.96011 c -0.55749,20.03862 -10.22063,36.08189 -18.02547,49.02803 -4.98642,8.26941 -9.29147,15.39288 -9.941873,21.61817 -1.207892,11.14976 4.366993,15.67162 6.937643,17.12728 v 11.49047 c 0,1.02206 0.83623,1.82733 1.82732,1.82733 H 141.0668 c 1.02207,0 1.82733,-0.83624 1.82733,-1.82733 V 253.6822 c 2.53967,-1.45566 8.14553,-6.00848 6.93763,-17.12728 -0.61942,-6.22529 -4.92447,-13.34876 -9.87994,-21.61817 z M 83.211867,70.485248 v -21.86595 l 12.94613,5.38906 c 0.68137,0.27874 1.48663,0.12388 2.01314,-0.40263 0.52652,-0.52652 0.68139,-1.30081 0.40264,-2.01316 l -4.39796,-10.53034 h 21.865943 l -4.39797,10.53034 c -0.0929,0.21681 -0.15485,0.46458 -0.15485,0.71235 v 0.37166 c 0,0.61943 0.30971,1.17692 0.80525,1.51761 0.49555,0.34069 1.14596,0.40263 1.73441,0.15486 l 13.25585,-5.51295 v 21.86595 l -13.25585,-5.51295 c -0.55748,-0.24777 -1.2079,-0.18583 -1.73441,0.15486 -0.49554,0.34069 -0.80525,0.89818 -0.80525,1.51761 v 0.37166 c 0,0.24777 0.0619,0.49554 0.15485,0.71234 l 4.39797,10.53035 H 94.144837 l 4.39797,-10.53035 c 0.0929,-0.2168 0.15485,-0.46457 0.15485,-0.71234 v -0.4336 c 0,-0.61944 -0.30971,-1.17692 -0.80526,-1.51761 -0.49555,-0.34069 -1.14594,-0.40263 -1.7344,-0.15486 z m 4.08825,53.735712 c 0.30971,-0.86721 0.71234,-1.95121 -5.04837,-23.60036 -1.98217,-7.464152 -4.05728,-14.866362 -5.07934,-18.490032 h 14.21596 27.378893 v 0 h 14.21596 c -1.02206,3.65464 -3.09716,11.02588 -5.07934,18.490032 -5.76072,21.64915 -5.35809,22.73315 -5.04837,23.60036 0.61943,1.67246 4.15019,6.47306 6.6589,9.75605 H 80.610257 c 2.50869,-3.28299 6.03945,-8.08359 6.68986,-9.75605 z m -16.5698,27.22403 c 0.58846,-4.27408 2.9423,-8.91982 6.99957,-13.78236 h 54.664873 c 4.08825,4.89351 6.44208,9.50828 6.99958,13.78236 h -7.43318 -53.828633 z m 16.97244,10.80908 c -1.17693,-0.61943 -5.32712,-2.97328 -7.0925,-7.15444 h 48.966093 c -1.73441,4.11923 -5.88461,6.53501 -7.09251,7.15444 z M 139.30142,263.37632 H 70.854197 v -8.9508 h 68.447223 z m 1.45567,-12.63641 H 69.398537 c -1.23886,-0.58847 -6.56597,-3.80951 -5.48196,-13.78236 0.58845,-5.42003 4.70767,-12.23378 9.44632,-20.13153 8.05263,-13.34877 17.9945,-29.85662 18.55199,-50.9173 h 26.325853 c 0.55748,21.0297 10.49937,37.56853 18.55198,50.9173 4.76964,7.89775 8.85789,14.7115 9.44634,20.13153 1.08401,9.94189 -4.21214,13.16292 -5.48197,13.78236 z"
       id="path55"
       style="stroke-width:0.30971593;fill:#333333" />
    <path
       style="fill:#cccccc;stroke-width:2.85714293"
       d="m 358.28571,295.10457 c 0,-0.62117 3.85015,-10.17711 8.55588,-21.23542 8.73874,-20.53573 8.83774,-29.06375 0.33742,-29.06375 -2.62958,0 -15.34917,4.45707 -28.26575,9.90459 l -23.48469,9.90459 v -39.63993 -39.63992 l 23.08337,9.73534 c 37.02609,15.61562 41.01991,13.11648 28.07451,-17.56767 -4.5654,-10.82127 -8.30074,-20.03354 -8.30074,-20.47173 0,-0.43818 17.35715,-0.7967 38.57143,-0.7967 21.21429,0 38.57143,0.6816 38.57143,1.51466 0,0.83307 -3.21428,9.15147 -7.14286,18.48534 -7.98068,18.96127 -8.98939,28.04219 -3.35509,30.20427 2.08327,0.79943 14.57995,-3.09807 27.7704,-8.6611 13.19046,-5.56303 24.98596,-10.1146 26.21224,-10.1146 1.22628,0 2.2296,17.4947 2.2296,38.87711 0,32.47335 -0.67061,38.61978 -4.07124,37.31483 -2.23919,-0.85925 -13.83258,-5.62593 -25.76311,-10.59263 -31.9918,-13.31822 -35.97093,-9.4428 -23.0228,22.42275 3.92858,9.66828 7.14286,18.24709 7.14286,19.06403 0,0.81694 -17.35714,1.48534 -38.57143,1.48534 -21.21428,0 -38.57143,-0.50823 -38.57143,-1.1294 z"
       id="path507"
       inkscape:connector-curvature="0"
       transform="scale(0.26458333)" />
    <path
       style="fill:#cccccc;stroke-width:2.85714293"
       d="m 310.19048,502.66254 c 0.52381,-1.17857 5.99207,-9.59028 12.1517,-18.6927 L 333.5415,467.42 319.94618,412.54127 c -7.47742,-30.1833 -16.56654,-65.48587 -20.19805,-78.45016 l -6.60273,-23.57142 h 104.19127 c 97.87219,0 104.10415,0.30324 102.75492,5 -0.78999,2.75 -4.02931,14 -7.19849,25 -10.32907,35.8515 -28.76987,111.22042 -29.36086,120 -0.64931,9.64585 3.16057,17.94748 15.40697,33.57142 l 8.3981,10.71429 H 398.2877 c -48.97728,0 -88.62103,-0.96429 -88.09722,-2.14286 z"
       id="path509"
       inkscape:connector-curvature="0"
       transform="scale(0.26458333)" />
    <path
       style="fill:#cccccc;stroke-width:2.85714293"
       d="m 270.97298,562.66254 c 1.03299,-4.32143 6.21244,-14.92857 11.5099,-23.57143 l 9.63174,-15.71428 104.29466,-0.74926 104.29465,-0.74927 5.56065,7.89212 C 514.34725,541.242 524,561.02585 524,566.12015 c 0,3.89554 -14.60065,4.39954 -127.45259,4.39954 h -127.4526 z"
       id="path511"
       inkscape:connector-curvature="0"
       transform="scale(0.26458333)" />
    <path
       style="fill:#cccccc;stroke-width:2.85714293"
       d="m 316.32766,599.8054 -10.71996,-10.71429 44.73051,-0.78592 c 24.60178,-0.43226 65.70433,-0.43226 91.339,0 l 46.6085,0.78592 -10.91772,10.71429 -10.91772,10.71429 h -69.70132 -69.70133 z"
       id="path513"
       inkscape:connector-curvature="0"
       transform="scale(0.26458333)" />
    <path
       style="fill:#cccccc;stroke-width:2.85714293"
       d="m 256.28365,941.23397 c -18.20121,-19.98326 -18.3175,-45.3673 -0.36966,-80.68813 4.79833,-9.44295 16.89658,-30.93706 26.88502,-47.76468 41.1526,-69.33019 64.05813,-128.8664 64.05813,-166.5003 0,-19.14062 -1.45131,-18.61832 51.73426,-18.61832 h 48.26574 l 0.0618,13.57143 c 0.18976,41.64883 21.19399,97.0454 66.05764,174.22044 29.91412,51.45866 39.59481,73.26119 39.59481,89.17414 0,12.67431 -5.30329,26.57802 -13.33543,34.96176 l -7.73366,8.07223 H 396.8206 262.1389 Z"
       id="path515"
       inkscape:connector-curvature="0"
       transform="scale(0.26458333)" />
    <path
       style="fill:#cccccc;stroke-width:2.85714293"
       d="M 269.71429,977.66254 V 961.94826 H 396.85714 524 v 15.71428 15.71429 H 396.85714 269.71429 Z"
       id="path519"
       inkscape:connector-curvature="0"
       transform="scale(0.26458333)" />
  </g>
</svg>
