<?xml version="1.0" encoding="UTF-8" standalone="no"?>
<!-- Created with Inkscape (http://www.inkscape.org/) -->

<svg
   xmlns:dc="http://purl.org/dc/elements/1.1/"
   xmlns:cc="http://creativecommons.org/ns#"
   xmlns:rdf="http://www.w3.org/1999/02/22-rdf-syntax-ns#"
   xmlns:svg="http://www.w3.org/2000/svg"
   xmlns="http://www.w3.org/2000/svg"
   xmlns:sodipodi="http://sodipodi.sourceforge.net/DTD/sodipodi-0.dtd"
   xmlns:inkscape="http://www.inkscape.org/namespaces/inkscape"
   width="210mm"
   height="297mm"
   viewBox="0 0 210 297"
   version="1.1"
   id="svg233"
   inkscape:version="0.92.4 (f8dce91, 2019-08-02)"
   sodipodi:docname="wP.svg">
  <defs
     id="defs227" />
  <sodipodi:namedview
     id="base"
     pagecolor="#ffffff"
     bordercolor="#666666"
     borderopacity="1.0"
     inkscape:pageopacity="0.0"
     inkscape:pageshadow="2"
     inkscape:zoom="0.35"
     inkscape:cx="400"
     inkscape:cy="560"
     inkscape:document-units="mm"
     inkscape:current-layer="layer1"
     showgrid="false"
     inkscape:window-width="1533"
     inkscape:window-height="845"
     inkscape:window-x="67"
     inkscape:window-y="27"
     inkscape:window-maximized="1" />
  <metadata
     id="metadata230">
    <rdf:RDF>
      <cc:Work
         rdf:about="">
        <dc:format>image/svg+xml</dc:format>
        <dc:type
           rdf:resource="http://purl.org/dc/dcmitype/StillImage" />
        <dc:title></dc:title>
      </cc:Work>
    </rdf:RDF>
  </metadata>
  <g
     inkscape:label="Calque 1"
     inkscape:groupmode="layer"
     id="layer1">
    <path
       inkscape:connector-curvature="0"
       d="m 148.17631,210.78764 c -8.7067,-8.89606 -18.54839,-18.92751 -18.58681,-43.75947 3.10421,-2.38502 7.76068,-7.00341 9.38842,-14.04424 1.21123,-5.26142 0.5298,-10.90196 -2.04429,-16.8458 0,0 0,-0.0344 0,-0.0344 -0.18907,-0.41655 -0.37875,-0.8327 -0.56819,-1.24873 -0.0345,-0.0788 -0.0788,-0.11417 -0.0788,-0.18978 -0.52978,-1.09728 -1.09798,-2.19514 -1.77842,-3.29313 -0.15164,-0.26489 -0.3033,-0.52977 -0.45495,-0.79467 -0.15165,-0.22747 -0.3023,-0.49236 -0.45396,-0.71982 -0.18906,-0.30233 -0.41654,-0.64304 -0.6056,-0.94636 -0.11324,-0.18906 -0.26489,-0.37812 -0.37913,-0.6056 -0.0345,-0.0788 -0.0788,-0.11326 -0.11324,-0.18906 4.69421,-6.28357 7.26831,-13.96842 7.26831,-21.87975 0,-20.100684 -16.35344,-36.491692 -36.49168,-36.491692 -20.138543,0 -36.491635,16.353068 -36.491635,36.491692 0,7.87392 2.574119,15.59618 7.26806,21.87975 -0.03774,0.0788 -0.07583,0.1134 -0.113565,0.18906 -0.113613,0.18948 -0.227146,0.37913 -0.378581,0.5301 -0.227094,0.34062 -0.454239,0.68124 -0.643529,0.98442 -0.151362,0.22724 -0.302812,0.45396 -0.416353,0.68144 -0.151452,0.26489 -0.340716,0.52978 -0.492127,0.83282 -0.643526,1.0973 -1.211359,2.19522 -1.741298,3.25536 -0.03768,0.0788 -0.07583,0.1137 -0.113589,0.18949 -0.189266,0.41634 -0.378531,0.83238 -0.567797,1.24863 0,0 0,0.0344 -0.03742,0.0344 -2.574088,5.90443 -3.255524,11.54498 -2.044204,16.8448 2.49846,10.67447 11.886294,15.78523 12.264826,15.9743 0.151451,0.0788 0.302903,0.15164 0.492169,0.18907 -0.567896,23.28102 -10.107183,33.00918 -18.548697,41.64034 -5.45098,5.67795 -10.637071,11.01519 -11.507671,19.07817 -1.476309,13.62769 5.337442,19.15501 8.479326,20.93342 v 14.04424 c 0,1.24963 1.022054,2.23336 2.233472,2.23336 h 88.161933 c 1.24963,0 2.23336,-1.02214 2.23336,-2.23336 v -14.04349 c 3.10487,-1.77841 9.95663,-7.34314 8.47953,-20.93342 -0.90792,-8.06298 -6.13192,-13.40022 -11.6208,-19.00234 z M 71.294109,106.27123 c 0,-17.639773 14.346794,-31.986736 31.986921,-31.986736 17.63988,0 31.98681,14.346963 31.98681,31.986736 0,7.07924 -2.34699,13.96842 -6.66208,19.57056 H 77.956478 c -4.315397,-5.56373 -6.662369,-12.49132 -6.662369,-19.57056 z m 2.384825,31.76054 c 0,0 0,0 0,0 0.113564,-0.3033 0.264981,-0.6066 0.416396,-0.9089 0.03755,-0.0344 0.03755,-0.0788 0.07583,-0.15165 0.227129,-0.49237 0.454252,-0.98375 0.719231,-1.47612 0.07583,-0.15165 0.151421,-0.3033 0.264979,-0.49237 0.113558,-0.22647 0.227132,-0.41654 0.340696,-0.64301 0.151412,-0.2649 0.302829,-0.5298 0.454253,-0.83309 0.113548,-0.18907 0.227119,-0.37814 0.340684,-0.56821 0.189274,-0.3407 0.416395,-0.64301 0.605666,-0.98372 0.07583,-0.15166 0.189273,-0.26489 0.264983,-0.41656 0.264984,-0.41654 0.567815,-0.83308 0.870651,-1.28703 h 50.497637 c 0.30261,0.41654 0.56786,0.87049 0.8705,1.28703 0.0788,0.15167 0.18907,0.2649 0.26489,0.41656 0.22748,0.34071 0.41654,0.64302 0.6056,0.98372 0.11392,0.19007 0.22749,0.41654 0.34073,0.60562 0.15166,0.26588 0.3033,0.53078 0.45441,0.79568 0.11379,0.22647 0.22702,0.41654 0.34059,0.64301 0.0788,0.15167 0.15133,0.30331 0.26525,0.49237 0.2652,0.49237 0.49168,0.98375 0.71916,1.47612 0.0344,0.0344 0.0344,0.0788 0.0788,0.15165 0.15157,0.3023 0.2649,0.6056 0.41655,0.9089 0,0 0,0 0,0 1.05956,2.49827 1.74099,4.9207 2.04407,7.2299 H 71.634802 c 0.302832,-2.3092 0.984208,-4.73163 2.044132,-7.2299 z m -1.7413,13.8916 c -0.15142,-0.71885 -0.264986,-1.40029 -0.340693,-2.11913 h 63.368209 c -0.0788,0.71884 -0.18906,1.43869 -0.34072,2.11913 -1.70358,7.49578 -7.87391,11.77345 -9.5775,12.83302 H 82.612556 81.514779 c -1.703441,-1.09798 -7.873698,-5.33724 -9.577145,-12.83302 z M 146.81344,262.57169 H 63.155417 v -10.93937 h 83.658023 z m 1.77941,-15.44452 H 61.376273 c -1.514183,-0.71885 -8.025137,-4.65581 -6.700224,-16.84481 0.71923,-6.54846 4.958922,-10.86454 10.334235,-16.35344 8.592935,-8.78182 19.230005,-19.60794 19.835683,-44.70579 h 40.315203 c 0.60561,25.05943 11.24268,35.92397 19.83544,44.70579 5.37533,5.4889 9.61492,9.8424 10.33375,16.35344 1.28704,12.15159 -5.18557,16.0885 -6.73751,16.84481 z"
       id="path39"
       style="stroke-width:0.3785432;fill:#333333" />
    <path
       style="fill:#cccccc;stroke-width:2.85714293"
       d="m 284.13378,455.51018 c -30.26982,-61.48672 -4.76784,-133.17749 57.77953,-162.42892 19.04984,-8.909 22.77125,-9.64897 47.80098,-9.50478 20.91323,0.12047 30.74948,1.58627 42.85714,6.38657 68.25935,27.06268 97.31508,108.55758 61.06395,171.27092 l -7.01912,12.14286 H 389.77288 292.9295 Z"
       id="path260"
       inkscape:connector-curvature="0"
       transform="scale(0.26458333)" />
    <path
       style="fill:#cccccc;stroke-width:2.85714293"
       d="m 273.75581,539.8054 c 0.99212,-4.32143 5.96839,-16.21429 11.05838,-26.42857 l 9.25453,-18.57143 96.26863,-0.75214 96.26864,-0.75214 10.12558,21.05195 c 5.56906,11.57856 10.12557,23.80988 10.12557,27.18071 v 6.12876 H 389.40455 271.95195 Z"
       id="path262"
       inkscape:connector-curvature="0"
       transform="scale(0.26458333)" />
    <path
       style="fill:#cccccc;stroke-width:2.85714293"
       d="m 295.52859,610.28557 c -11.11728,-10.78894 -22.74636,-30.62498 -22.89441,-39.0516 -0.0492,-2.80068 25.48294,-3.57143 118.30923,-3.57143 H 509.3154 l -2.48733,8.67282 c -3.61784,12.61466 -13.0508,26.81934 -24.46561,36.84167 l -9.98987,8.77123 h -82.4132 -82.41321 z"
       id="path264"
       inkscape:connector-curvature="0"
       transform="scale(0.26458333)" />
    <path
       style="fill:#cccccc;stroke-width:2.85714293"
       d="m 221.55906,923.41434 c -16.01863,-18.24421 -18.91418,-50.6937 -6.66588,-74.70235 3.11687,-6.10956 18.9767,-25.45424 35.24407,-42.98817 31.27067,-33.70538 44.32051,-52.65401 55.74956,-80.9495 7.7612,-19.21478 15.25605,-54.41376 15.25605,-71.64883 v -11.17723 h 75.71428 75.71429 v 11.17723 c 0,17.23507 7.49485,52.43405 15.25606,71.64883 11.42902,28.29549 24.47888,47.24412 55.74954,80.9495 37.53583,40.45832 41.78866,48.24272 41.64363,76.22444 -0.12257,23.65353 -4.6306,35.52522 -17.26317,45.462 -7.49332,5.89425 -9.58558,5.96657 -172.61825,5.96657 h -165.033 z"
       id="path266"
       inkscape:connector-curvature="0"
       transform="scale(0.26458333)" />
    <path
       style="fill:#cccccc;stroke-width:2.85714293"
       d="m 241.14286,971.94826 v -18.57143 h 155.71428 155.71429 v 18.57143 18.57143 H 396.85714 241.14286 Z"
       id="path268"
       inkscape:connector-curvature="0"
       transform="scale(0.26458333)" />
  </g>
</svg>
