<?xml version="1.0" encoding="UTF-8" standalone="no"?>
<!-- Created with Inkscape (http://www.inkscape.org/) -->

<svg
   xmlns:dc="http://purl.org/dc/elements/1.1/"
   xmlns:cc="http://creativecommons.org/ns#"
   xmlns:rdf="http://www.w3.org/1999/02/22-rdf-syntax-ns#"
   xmlns:svg="http://www.w3.org/2000/svg"
   xmlns="http://www.w3.org/2000/svg"
   xmlns:sodipodi="http://sodipodi.sourceforge.net/DTD/sodipodi-0.dtd"
   xmlns:inkscape="http://www.inkscape.org/namespaces/inkscape"
   width="210mm"
   height="297mm"
   viewBox="0 0 210 297"
   version="1.1"
   id="svg282"
   inkscape:version="0.92.4 (f8dce91, 2019-08-02)"
   sodipodi:docname="bH.svg">
  <defs
     id="defs276" />
  <sodipodi:namedview
     id="base"
     pagecolor="#ffffff"
     bordercolor="#666666"
     borderopacity="1.0"
     inkscape:pageopacity="0.0"
     inkscape:pageshadow="2"
     inkscape:zoom="0.35"
     inkscape:cx="400"
     inkscape:cy="560"
     inkscape:document-units="mm"
     inkscape:current-layer="layer1"
     showgrid="false"
     showguides="false"
     inkscape:window-width="1533"
     inkscape:window-height="845"
     inkscape:window-x="67"
     inkscape:window-y="27"
     inkscape:window-maximized="1" />
  <metadata
     id="metadata279">
    <rdf:RDF>
      <cc:Work
         rdf:about="">
        <dc:format>image/svg+xml</dc:format>
        <dc:type
           rdf:resource="http://purl.org/dc/dcmitype/StillImage" />
        <dc:title></dc:title>
      </cc:Work>
    </rdf:RDF>
  </metadata>
  <g
     inkscape:label="Calque 1"
     inkscape:groupmode="layer"
     id="layer1">
    <path
       style="stroke-width:0.16476762;fill:#1a1a1a"
       inkscape:connector-curvature="0"
       d="m 89.57123,62.124862 -5.27257,6.425922 -8.89745,-4.11917 C 70.4582,62.124862 62.87889,60.14762 58.7597,60.14762 l -7.57931,-0.329743 0.32956,11.533712 c 0.32955,13.840465 -1.64768,20.266433 -17.95967,55.032391 -6.590707,14.00525 -13.675717,30.31724 -15.652927,36.57843 -3.624887,10.70987 -3.789656,11.20416 -0.823839,15.81766 4.119189,6.92026 10.215592,11.2042 19.113046,13.67573 5.27256,1.48291 8.40315,1.64769 10.38036,0.49429 1.97721,-1.31813 2.96581,-0.82384 4.28395,1.81247 0.98861,1.97719 3.29536,3.62488 5.27257,3.95439 2.80105,0.49433 5.27256,-1.9772 11.86327,-11.69849 4.44873,-6.75548 10.5451,-14.17002 13.51091,-16.64151 5.93164,-5.10783 17.95968,-11.53376 19.11304,-10.38036 1.64768,1.64764 -6.26115,16.47673 -15.65288,29.65817 -5.43735,7.41455 -10.87467,15.65289 -12.35758,18.45397 -1.97721,3.95439 -6.0964,19.7721 -6.0964,23.06747 0,0.49429 28.50478,0.8238 63.27074,0.8238 h 63.106 l 1.15336,-7.57927 c 3.62488,-27.5162 -3.29533,-71.83868 -14.99387,-95.40049 -14.49953,-28.83432 -35.5898,-47.453069 -57.17432,-50.08933 -7.7441,-0.988621 -8.23839,-1.31813 -10.38036,-7.90883 -2.30675,-6.920255 -10.21563,-15.323419 -14.49958,-15.323419 -1.31813,0 -4.61345,2.965817 -7.41454,6.425968 z m 34.27168,32.294433 c 17.13583,5.10779 40.20331,32.459205 48.44169,57.668655 4.94301,14.99386 7.90883,33.77739 7.90883,50.08938 0,11.86327 -2.47153,17.46535 -6.92025,15.81766 -3.46011,-1.31813 -4.61351,-5.93163 -4.61351,-19.93688 0,-15.48815 -3.95439,-38.06128 -8.89745,-50.08933 -8.89745,-21.74934 -27.02186,-41.35666 -43.82814,-47.2883 -7.90888,-2.801081 -10.38036,-5.931629 -6.09642,-7.579316 3.29533,-1.482909 5.1078,-1.318131 14.00525,1.318131 z M 75.89555,107.93025 c 0.49428,1.15335 -2.14199,5.10779 -5.60212,8.73267 -4.77825,5.27257 -7.5793,6.92026 -12.02803,7.08499 -8.40315,0.49433 -8.73268,-5.27252 -0.9886,-13.01662 4.94302,-4.94301 6.75547,-5.76686 11.86326,-5.27257 3.46012,0.32974 6.42593,1.31813 6.75549,2.47153 z m -42.34529,59.48112 c 0,4.11917 -3.46012,8.23834 -7.414544,8.89745 -2.636285,0.32928 -3.130586,-0.32974 -2.801049,-3.62493 0.65907,-6.75543 10.215593,-11.69849 10.215593,-5.27252 z"
       id="path14" />
    <path
       style="fill:#cccccc;fill-opacity:1;stroke-width:2.85714293"
       d="m 651.32861,818.5138 c -9.07047,-7.8418 -12.88299,-28.60623 -13.00889,-70.85126 -0.14735,-49.44471 -10.68065,-119.07205 -24.79347,-163.89005 -17.12461,-54.38256 -47.68409,-103.7275 -90.57047,-146.24574 -29.98672,-29.72932 -52.04619,-45.13499 -82.1369,-57.36193 -30.92647,-12.56656 -37.87562,-20.10606 -24.92164,-27.03882 7.28862,-3.90074 28.87707,-2.03803 49.58756,4.27857 62.80268,19.1545 145.29747,113.66061 180.23815,206.48101 19.36837,51.45233 32.61089,130.09722 32.38834,192.34839 -0.15811,44.22734 -2.97564,58.1942 -13.07844,64.83134 -5.46695,3.59158 -6.90928,3.32303 -13.70424,-2.55151 z"
       id="path296"
       inkscape:connector-curvature="0"
       transform="scale(0.26458333)" />
    <path
       style="fill:#cccccc;fill-opacity:1;stroke-width:2.85714293"
       d="m 89.714286,654.46927 c 0,-8.23315 2.303653,-12.63979 11.322384,-21.65852 14.13589,-14.1359 21.17854,-13.69282 22.42789,1.411 0.75411,9.11681 -0.6467,12.33722 -9,20.69052 -6.21268,6.21268 -12.65672,9.89313 -17.321703,9.89313 -6.631049,0 -7.428571,-1.10967 -7.428571,-10.33613 z"
       id="path298"
       inkscape:connector-curvature="0"
       transform="scale(0.26458333)" />
  </g>
</svg>
