<?xml version="1.0" encoding="UTF-8" standalone="no"?>
<!-- Created with Inkscape (http://www.inkscape.org/) -->

<svg
   xmlns:dc="http://purl.org/dc/elements/1.1/"
   xmlns:cc="http://creativecommons.org/ns#"
   xmlns:rdf="http://www.w3.org/1999/02/22-rdf-syntax-ns#"
   xmlns:svg="http://www.w3.org/2000/svg"
   xmlns="http://www.w3.org/2000/svg"
   xmlns:sodipodi="http://sodipodi.sourceforge.net/DTD/sodipodi-0.dtd"
   xmlns:inkscape="http://www.inkscape.org/namespaces/inkscape"
   width="210mm"
   height="297mm"
   viewBox="0 0 210 297"
   version="1.1"
   id="svg381"
   inkscape:version="0.92.4 (f8dce91, 2019-08-02)"
   sodipodi:docname="wP.svg">
  <defs
     id="defs375" />
  <sodipodi:namedview
     id="base"
     pagecolor="#ffffff"
     bordercolor="#666666"
     borderopacity="1.0"
     inkscape:pageopacity="0.0"
     inkscape:pageshadow="2"
     inkscape:zoom="0.35"
     inkscape:cx="400"
     inkscape:cy="560"
     inkscape:document-units="mm"
     inkscape:current-layer="layer1"
     showgrid="false"
     inkscape:window-width="1533"
     inkscape:window-height="845"
     inkscape:window-x="67"
     inkscape:window-y="27"
     inkscape:window-maximized="1" />
  <metadata
     id="metadata378">
    <rdf:RDF>
      <cc:Work
         rdf:about="">
        <dc:format>image/svg+xml</dc:format>
        <dc:type
           rdf:resource="http://purl.org/dc/dcmitype/StillImage" />
        <dc:title></dc:title>
      </cc:Work>
    </rdf:RDF>
  </metadata>
  <g
     inkscape:label="Calque 1"
     inkscape:groupmode="layer"
     id="layer1">
    <path
       style="stroke-width:0.20434229;fill:#1a1a1a"
       inkscape:connector-curvature="0"
       d="M 93.6591,40.397158 C 77.924797,45.097037 69.95541,61.444406 75.063999,78.40484 c 2.656443,8.786692 2.656443,10.012765 -0.204471,11.647491 -7.96933,4.495523 -17.164732,14.508289 -19.412523,21.251599 -4.904234,14.71265 1.43037,35.75989 12.873563,42.29885 l 6.334604,3.88252 -6.947611,3.47381 C 57.286086,166.47635 41.960434,180.78028 36.238838,190.38439 29.495524,201.82759 25,222.05747 25,241.06128 V 257 H 104.89782 185 l -1.22607,-21.04731 c -0.61301,-11.44313 -2.65645,-25.54277 -4.49553,-31.26436 -4.90417,-14.50829 -16.14301,-28.60793 -30.6513,-38.41634 l -12.46491,-8.37804 8.5824,-8.17368 c 9.60405,-9.1954 12.26049,-17.7778 10.01276,-32.69474 -1.22607,-9.1954 -10.42148,-21.251603 -20.02553,-26.564489 -3.47386,-1.839081 -3.47386,-2.656443 -0.40894,-11.647548 8.58233,-24.725409 -14.09964,-46.181309 -40.664127,-38.416335 z m 17.36909,12.260556 c 3.67816,0 10.01282,8.173684 10.01282,13.077918 0,2.656443 -1.83908,8.786692 -3.88252,13.486571 -2.24779,4.904234 -3.4738,10.012765 -2.86079,11.443135 0.40894,1.430428 4.49552,4.904234 8.99104,7.969387 10.62583,6.947615 16.14307,16.143015 16.14307,27.177495 0,9.1954 -3.47386,13.89528 -17.98215,25.54277 -5.92589,4.69988 -3.4738,9.60412 9.39976,18.39081 26.36013,18.18651 36.98596,34.32952 38.82504,58.64628 l 1.02172,14.30393 h -66.0026 -66.002538 l 1.021718,-14.30393 c 1.83908,-24.72541 11.034482,-38.21204 40.45977,-59.8723 11.851845,-8.78675 12.669208,-13.69092 3.065153,-21.2516 -18.799515,-14.50829 -17.573442,-34.32952 2.860798,-48.83781 8.991047,-6.538959 10.421418,-12.0562 5.312887,-21.251603 -7.560677,-13.282215 1.634725,-28.81228 14.917002,-25.338416 1.63472,0.408363 3.67816,0.817363 4.69982,0.817363 z"
       id="path36" />
    <path
       style="fill:#cccccc;fill-opacity:1;stroke-width:2.85714293"
       d="m 148.0317,906.94826 c 0.78842,-5.10715 2.21882,-21.5 3.17866,-36.42857 6.00126,-93.33858 36.84771,-143.49343 134.34927,-218.44552 46.96296,-36.10171 58.35646,-50.06611 54.25626,-66.49903 -1.16608,-4.67345 -12.97762,-18.59031 -28.85321,-33.99608 -34.00893,-33.00249 -44.09986,-51.95152 -44.10328,-82.81835 -0.002,-17.51033 1.37958,-23.09254 9.9596,-40.24299 9.85047,-19.68992 22.89835,-33.89391 57.68106,-62.79186 26.55882,-22.06543 29.03148,-37.2733 12.25403,-75.36739 -15.469,-35.12317 -11.40766,-64.38392 11.62654,-83.76593 11.69996,-9.84487 19.34208,-11.49809 42.285,-9.14752 22.96534,2.35287 33.32923,7.95679 44.7234,24.18266 12.30368,17.52111 11.69934,38.25782 -2.13272,73.17772 -5.60208,14.14286 -11.0974,30.60761 -12.21177,36.58834 -2.44045,13.09751 1.46526,18.1194 31.52689,40.53665 38.46554,28.68414 53.38403,48.79611 60.10468,81.02844 4.75015,22.78182 2.01052,46.86671 -6.987,61.425 -5.13488,8.30846 -22.72817,25.98443 -56.824,57.09108 -22.94137,20.93012 -16.31265,32.85969 42.84109,77.10063 81.28629,60.79375 117.17694,107.73229 131.89657,172.49715 3.241,14.26 10.39723,79.06022 10.39723,94.14762 0,0.55752 -111.9154,1.01366 -248.70089,1.01366 h -248.7009 z"
       id="path389"
       inkscape:connector-curvature="0"
       transform="scale(0.26458333)" />
  </g>
</svg>
