<?xml version="1.0" encoding="UTF-8" standalone="no"?>
<!-- Created with Inkscape (http://www.inkscape.org/) -->

<svg
   xmlns:dc="http://purl.org/dc/elements/1.1/"
   xmlns:cc="http://creativecommons.org/ns#"
   xmlns:rdf="http://www.w3.org/1999/02/22-rdf-syntax-ns#"
   xmlns:svg="http://www.w3.org/2000/svg"
   xmlns="http://www.w3.org/2000/svg"
   xmlns:sodipodi="http://sodipodi.sourceforge.net/DTD/sodipodi-0.dtd"
   xmlns:inkscape="http://www.inkscape.org/namespaces/inkscape"
   width="210mm"
   height="297mm"
   viewBox="0 0 210 297"
   version="1.1"
   id="svg140"
   sodipodi:docname="wQ.svg"
   inkscape:version="0.92.4 (f8dce91, 2019-08-02)">
  <defs
     id="defs134" />
  <sodipodi:namedview
     id="base"
     pagecolor="#ffffff"
     bordercolor="#666666"
     borderopacity="1.0"
     inkscape:pageopacity="0.0"
     inkscape:pageshadow="2"
     inkscape:zoom="0.35"
     inkscape:cx="400"
     inkscape:cy="560"
     inkscape:document-units="mm"
     inkscape:current-layer="layer1"
     showgrid="false"
     inkscape:window-width="1533"
     inkscape:window-height="845"
     inkscape:window-x="67"
     inkscape:window-y="27"
     inkscape:window-maximized="1" />
  <metadata
     id="metadata137">
    <rdf:RDF>
      <cc:Work
         rdf:about="">
        <dc:format>image/svg+xml</dc:format>
        <dc:type
           rdf:resource="http://purl.org/dc/dcmitype/StillImage" />
        <dc:title></dc:title>
      </cc:Work>
    </rdf:RDF>
  </metadata>
  <g
     inkscape:label="Calque 1"
     inkscape:groupmode="layer"
     id="layer1">
    <path
       style="stroke-width:0.14305551;fill:#cccccc"
       inkscape:connector-curvature="0"
       d="m 96.083501,67.915335 c -5.00694,3.8625 -5.86528,9.727778 -2.86109,19.312488 3.29028,10.443061 3.14722,24.748587 -0.14315,41.772207 l -2.43193,12.875 -3.29028,-7.15278 c -6.86665,-15.16386 -10.44306,-28.32499 -10.15693,-37.194427 0.14314,-4.72084 0.28629,-10.3 0.28629,-12.44584 0.28629,-9.298587 -10.3,-15.879149 -19.45556,-12.01665 -6.00834,2.431934 -8.15419,5.436086 -9.01254,12.01665 -0.57221,4.720839 -0.14314,6.29443 3.71948,10.586119 6.4375,7.295808 7.2958,11.015288 7.2958,29.469438 l -0.14314,16.73749 -5.57915,-6.15137 c -8.86944,-9.87084 -12.01665,-17.59584 -10.87222,-27.18055 0.71528,-6.72364 0.42916,-9.012508 -2.00278,-12.875007 -4.86387,-7.86806 -12.44582,-9.441689 -20.02776,-4.291691 -8.869437,6.00835 -8.440272,17.881978 0.71528,24.748628 4.00555,3.14722 4.72083,4.72084 5.57916,12.15971 0.57223,4.57778 2.86112,15.59306 5.00695,24.1764 3.57637,13.87637 5.00694,16.88052 11.30137,24.74858 3.8625,5.00694 8.15419,11.15834 9.44169,13.73334 2.28887,4.43472 2.28887,5.00694 -1.2875,14.73472 -6.15141,17.16664 -5.00697,19.16942 12.87499,23.7472 13.73331,3.43335 64.947199,3.43335 80.683279,0 16.88056,-3.71943 19.0264,-7.86806 12.15971,-24.17636 -2.1458,-5.15 -3.29028,-10.0139 -2.86109,-12.01669 0.42916,-1.71665 4.86387,-8.15415 9.58472,-14.30555 8.44028,-10.58609 8.86943,-11.5875 12.87499,-28.03886 2.14585,-9.44165 4.43472,-20.45693 4.86387,-24.60556 0.85835,-6.15137 1.71669,-7.725 5.57919,-10.15693 9.8708,-6.4375 9.29859,-21.029147 -1.00141,-25.893058 -6.29443,-3.004159 -11.44443,-1.859719 -17.02358,3.86249 -4.14863,4.14863 -4.29169,4.57778 -3.29028,13.304198 0.8583,8.01109 0.42915,10.01387 -2.575,16.02221 -2.00278,3.8625 -5.86528,9.58472 -8.72641,12.73193 l -5.00693,5.72222 -0.42915,-8.58334 c -1.00142,-22.17358 0.8583,-31.18609 7.15277,-37.051368 10.72915,-9.58471 -1.00141,-28.324988 -14.73471,-23.747208 -8.58334,2.861088 -10.0139,5.86528 -9.58475,20.170799 0.28629,11.015277 -0.14315,14.448627 -3.8625,25.606977 -2.43193,7.15278 -5.57915,15.30693 -7.00971,18.16801 l -2.71803,5.15 -2.28891,-12.87499 c -3.00415,-16.16524 -3.14721,-32.473586 -0.28629,-40.484716 3.14722,-8.869427 2.71802,-14.734707 -1.43056,-19.169423 -4.14863,-4.57778 -13.73334,-5.149998 -19.026409,-1.144435 z m 13.733339,6.294434 c 2.43193,2.431934 2.14584,7.581931 -0.42916,9.727778 -5.43612,4.434717 -13.733339,-3.862498 -9.29862,-9.298625 2.14585,-2.574999 7.29584,-2.861087 9.72778,-0.429153 z m -40.913859,8.869432 c 3.29028,5.006973 0,9.727783 -6.15141,9.155563 -4.14858,-0.42916 -4.86386,-1.00137 -5.29306,-4.72085 -0.42915,-2.71802 0.28629,-4.720802 2.00278,-6.008301 2.71807,-2.002782 7.725,-1.144435 9.44169,1.573588 z m 81.827709,-1.573588 c 1.71669,1.287499 2.43198,3.29028 2.00278,6.008301 -0.28629,3.43335 -1.14443,4.43476 -4.43471,4.72085 -7.725,0.85834 -11.01528,-6.15137 -5.00694,-10.299998 3.8625,-2.718064 4.29166,-2.718064 7.43887,-0.429153 z M 33.997431,98.529193 c 2.43194,2.431977 2.14585,7.581977 -0.42917,9.727787 -2.86111,2.43193 -8.86944,0.71528 -10.01388,-2.86109 -2.00278,-6.294478 5.86527,-11.444477 10.44305,-6.866697 z m 151.066589,0.572221 c 2.71807,2.574996 2.86113,4.005556 0.85835,7.868066 -2.86113,5.29306 -11.44443,2.575 -11.44443,-3.71944 0,-6.008348 6.29443,-8.440277 10.58608,-4.148626 z m -39.91248,69.381956 c 4.00556,1.43052 5.86528,3.00415 6.15141,5.00693 l 0.42915,3.14722 -46.49304,-0.14315 c -44.347199,-0.14315 -46.636069,-0.28629 -46.636069,-2.71806 0,-6.00835 15.59302,-8.29722 52.215219,-7.725 19.31249,0.42915 30.47083,1.14443 34.33333,2.43193 z m -5.86528,31.18607 c 3.00419,0.71528 6.58056,2.43194 7.86806,3.57641 1.85972,2.00278 1.85972,2.575 0.14315,4.29165 -1.85972,1.71665 -5.72222,1.85972 -22.88886,1.00137 -11.44443,-0.71524 -29.326399,-0.71524 -39.912489,0 -18.74027,1.2875 -23.03192,0.57226 -23.03192,-3.14721 0,-2.28887 8.15415,-5.43609 17.30971,-6.86665 10.87221,-1.71666 52.501349,-0.85835 60.512469,1.14443 z"
       id="path12" />
    <path
       style="fill:#333333;fill-opacity:1;stroke-width:2.85714293"
       d="m 334,664.90481 c -58.14286,-0.84039 -107.20073,-2.49355 -109.01749,-3.67368 -4.71698,-3.06408 -1.32702,-13.18316 5.67116,-16.92847 23.16308,-12.39651 93.41987,-18.00811 193.34633,-15.44311 81.56083,2.09358 119.44723,5.46434 131.50591,11.70013 9.43832,4.88074 17.06552,14.72421 17.06552,22.02431 0,5.64764 -5.0224,5.6965 -238.57143,2.32082 z"
       id="path526"
       inkscape:connector-curvature="0"
       transform="scale(0.26458333)" />
    <path
       style="fill:#333333;fill-opacity:1;stroke-width:2.85714293"
       d="m 248.85472,787.86683 c -12.7281,-2.58924 -17.69303,-6.69518 -15.38109,-12.71999 2.36595,-6.16558 14.82055,-11.96867 40.79902,-19.00987 28.79986,-7.80591 122.21788,-10.68463 194.14366,-5.98262 52.41846,3.42676 73.80535,8.08072 86.2244,18.76315 7.75795,6.67309 7.79586,6.86557 2.50403,12.71297 -5.2956,5.85158 -7.08943,5.92766 -124.25896,5.2704 -65.38718,-0.3668 -131.10007,0.19755 -146.02864,1.25409 -14.92857,1.05655 -32.02966,0.92689 -38.00242,-0.28813 z"
       id="path528"
       inkscape:connector-curvature="0"
       transform="scale(0.26458333)" />
  </g>
</svg>
