<?xml version="1.0" encoding="UTF-8" standalone="no"?>
<!-- Created with Inkscape (http://www.inkscape.org/) -->

<svg
   xmlns:dc="http://purl.org/dc/elements/1.1/"
   xmlns:cc="http://creativecommons.org/ns#"
   xmlns:rdf="http://www.w3.org/1999/02/22-rdf-syntax-ns#"
   xmlns:svg="http://www.w3.org/2000/svg"
   xmlns="http://www.w3.org/2000/svg"
   xmlns:sodipodi="http://sodipodi.sourceforge.net/DTD/sodipodi-0.dtd"
   xmlns:inkscape="http://www.inkscape.org/namespaces/inkscape"
   width="210mm"
   height="297mm"
   viewBox="0 0 210 297"
   version="1.1"
   id="svg282"
   sodipodi:docname="wH.svg"
   inkscape:version="0.92.4 (f8dce91, 2019-08-02)">
  <defs
     id="defs276" />
  <sodipodi:namedview
     id="base"
     pagecolor="#ffffff"
     bordercolor="#666666"
     borderopacity="1.0"
     inkscape:pageopacity="0.0"
     inkscape:pageshadow="2"
     inkscape:zoom="0.35"
     inkscape:cx="400"
     inkscape:cy="560"
     inkscape:document-units="mm"
     inkscape:current-layer="layer1"
     showgrid="false"
     showguides="false"
     inkscape:window-width="1533"
     inkscape:window-height="845"
     inkscape:window-x="67"
     inkscape:window-y="27"
     inkscape:window-maximized="1" />
  <metadata
     id="metadata279">
    <rdf:RDF>
      <cc:Work
         rdf:about="">
        <dc:format>image/svg+xml</dc:format>
        <dc:type
           rdf:resource="http://purl.org/dc/dcmitype/StillImage" />
        <dc:title />
      </cc:Work>
    </rdf:RDF>
  </metadata>
  <g
     inkscape:label="Calque 1"
     inkscape:groupmode="layer"
     id="layer1">
    <path
       style="stroke-width:0.16476762;fill:#666666"
       inkscape:connector-curvature="0"
       d="m 89.57123,62.124862 -5.27257,6.425922 -8.89745,-4.11917 C 70.4582,62.124862 62.87889,60.14762 58.7597,60.14762 l -7.57931,-0.329743 0.32956,11.533712 c 0.32955,13.840465 -1.64768,20.266433 -17.95967,55.032391 -6.590707,14.00525 -13.675717,30.31724 -15.652927,36.57843 -3.624887,10.70987 -3.789656,11.20416 -0.823839,15.81766 4.119189,6.92026 10.215592,11.2042 19.113046,13.67573 5.27256,1.48291 8.40315,1.64769 10.38036,0.49429 1.97721,-1.31813 2.96581,-0.82384 4.28395,1.81247 0.98861,1.97719 3.29536,3.62488 5.27257,3.95439 2.80105,0.49433 5.27256,-1.9772 11.86327,-11.69849 4.44873,-6.75548 10.5451,-14.17002 13.51091,-16.64151 5.93164,-5.10783 17.95968,-11.53376 19.11304,-10.38036 1.64768,1.64764 -6.26115,16.47673 -15.65288,29.65817 -5.43735,7.41455 -10.87467,15.65289 -12.35758,18.45397 -1.97721,3.95439 -6.0964,19.7721 -6.0964,23.06747 0,0.49429 28.50478,0.8238 63.27074,0.8238 h 63.106 l 1.15336,-7.57927 c 3.62488,-27.5162 -3.29533,-71.83868 -14.99387,-95.40049 -14.49953,-28.83432 -35.5898,-47.453069 -57.17432,-50.08933 -7.7441,-0.988621 -8.23839,-1.31813 -10.38036,-7.90883 -2.30675,-6.920255 -10.21563,-15.323419 -14.49958,-15.323419 -1.31813,0 -4.61345,2.965817 -7.41454,6.425968 z m 34.27168,32.294433 c 17.13583,5.10779 40.20331,32.459205 48.44169,57.668655 4.94301,14.99386 7.90883,33.77739 7.90883,50.08938 0,11.86327 -2.47153,17.46535 -6.92025,15.81766 -3.46011,-1.31813 -4.61351,-5.93163 -4.61351,-19.93688 0,-15.48815 -3.95439,-38.06128 -8.89745,-50.08933 -8.89745,-21.74934 -27.02186,-41.35666 -43.82814,-47.2883 -7.90888,-2.801081 -10.38036,-5.931629 -6.09642,-7.579316 3.29533,-1.482909 5.1078,-1.318131 14.00525,1.318131 z M 75.89555,107.93025 c 0.49428,1.15335 -2.14199,5.10779 -5.60212,8.73267 -4.77825,5.27257 -7.5793,6.92026 -12.02803,7.08499 -8.40315,0.49433 -8.73268,-5.27252 -0.9886,-13.01662 4.94302,-4.94301 6.75547,-5.76686 11.86326,-5.27257 3.46012,0.32974 6.42593,1.31813 6.75549,2.47153 z m -42.34529,59.48112 c 0,4.11917 -3.46012,8.23834 -7.414544,8.89745 -2.636285,0.32928 -3.130586,-0.32974 -2.801049,-3.62493 0.65907,-6.75543 10.215593,-11.69849 10.215593,-5.27252 z"
       id="path14" />
    <path
       style="fill:#cccccc;fill-opacity:1;stroke-width:2.85714293"
       d="m 651.38173,818.51014 c -9.27426,-8.07905 -13.0556,-28.17311 -13.07947,-69.50434 -0.0289,-50.05494 -10.62784,-118.97862 -25.90943,-168.48611 -23.97562,-77.67336 -92.80629,-163.0292 -155.36357,-192.66394 -9.52323,-4.51137 -23.52573,-11.06525 -31.11665,-14.56418 -15.75569,-7.26238 -19.52046,-13.27649 -11.83075,-18.89934 12.49323,-9.13527 53.33206,-0.0755 85.74188,19.02112 22.41352,13.20658 72.54497,63.60203 95.17656,95.67776 23.823,33.76432 49.57563,86.91996 60.21345,124.28572 23.56449,82.7712 31.6214,200.50223 15.22432,222.46434 -7.35559,9.852 -10.33213,10.26889 -19.05634,2.66897 z"
       id="path9"
       inkscape:connector-curvature="0"
       transform="scale(0.26458333)" />
    <path
       style="fill:#cccccc;fill-opacity:1;stroke-width:2.85714293"
       d="m 207.56516,465.72973 c -9.8752,-2.03096 -13.01848,-10.42578 -8.21148,-21.93054 6.2726,-15.01246 33.99196,-41.20124 45.99198,-43.45246 10.66567,-2.00089 28.01196,0.29214 36.47564,4.82176 4.75019,2.54223 4.77599,3.28031 0.40985,11.72351 -5.93601,11.47897 -31.62267,38.73282 -41.14809,43.65861 -8.76903,4.53464 -24.68994,6.99471 -33.5179,5.17912 z"
       id="path11"
       inkscape:connector-curvature="0"
       transform="scale(0.26458333)" />
    <path
       style="fill:#cccccc;fill-opacity:1;stroke-width:2.85714293"
       d="m 89.714286,654.46927 c 0,-8.1971 2.295552,-12.63169 11.092434,-21.42858 12.07315,-12.07314 18.72904,-13.86157 22.67386,-6.09243 6.41078,12.62575 -11.47957,37.85714 -26.842652,37.85714 -6.050859,0 -6.923642,-1.30296 -6.923642,-10.33613 z"
       id="path13"
       inkscape:connector-curvature="0"
       transform="scale(0.26458333)" />
  </g>
</svg>
